Chapter 3 Universal enrichment analysis | clusterProfiler: universal enrichment tool for functional and comparative study
…
## [1] ID              Description     setSize        
## [4] enrichmentScore NES             pvalue         
## [7] p.adjust        qvalues        
## <0 rows> (or 0-length row.names)

As an alternative to manually downloading gmt files, install the rWikiPathways package to gain scripting access to the latest gmt files using the downloadPathwayArchive function.

3.3 Cell Marker

cell_markers <- vroom::vroom('http://bio-bigdata.hrbmu.edu.cn/CellMarker/download/Human_cell_markers.txt') %>%
   tidyr::unite("cellMarker", tissueType, cancerType, cellName, sep=", ") %>% 
   dplyr::select(cellMarker, geneID)
cell_markers

## # A tibble: 2,868 x 2
##    cellMarker                                geneID         
##    <chr>                                     <chr>          
##  1 Kidney, Normal, Proximal tubular cell     248            
##  2 Liver, Normal, Ito cell (hepatic stellat… 6855           
##  3 Endometrium, Normal, Trophoblast cell     634            
##  4 Germ, Normal, Primordial germ cell        54514          
##  5 Corneal epithelium, Normal, Epithelial c… 1316           
##  6 Placenta, Normal, Cytotrophoblast         2255           
##  7 Periosteum, Normal, Periosteum-derived p… 214, 5788, 928…
##  8 Amniotic membrane, Normal, Amnion epithe… 79923, 5460    
##  9 Primitive streak, Normal, Primitive stre… 3975, 83881    
## 10 Adipose tissue, Normal, Stromal vascular… 947            
## # … with 2,858 more rows
…
